…
fastSave::load.lbzip2("/home/knut/Desktop/unsupervised_rf.RDataFS")

general_keywords <- urf_importance$globalVariableImportance %>% left_join(data.table(importance=c(v1.rg, v2.rg, v3.rg, v4.rg, v5.rg, v6.rg, v7.rg, v8.rg, v9.rg, v10.rg, v11.rg, v12.rg), keyword=names(c(v1.rg, v2.rg, v3.rg, v4.rg, v5.rg, v6.rg, v7.rg, v8.rg, v9.rg, v10.rg, v11.rg, v12.rg)), variables=c(rep("V1", length(v1.rg)), rep("V2", length(v2.rg)), rep("V3", length(v3.rg)), rep("V4", length(v4.rg)), rep("V5", length(v5.rg)), rep("V6", length(v6.rg)), rep("V7", length(v7.rg)), rep("V8", length(v8.rg)), rep("V9", length(v9.rg)), rep("V10", length(v10.rg)), rep("V11", length(v11.rg)), rep("V12", length(v12.rg)))) %>% group_by(variables) %>% arrange(desc(importance)) %>% slice_head(n = 50)) %>% filter(keyword!="value")
general_keywords_frequencies <- general_keywords %>% group_by(keyword) %>% count(sort = T) 

wordcloud2::wordcloud2(general_keywords_frequencies %>% rename(word=keyword, freq=n), size = 0.3)

General topics include data science, deep learning, machine learning, classification, neural nets, visualizations, careers.

general_keywords_frequencies 

## # A tibble: 130 × 2
## # Groups:   keyword [130]
##    keyword              n
##    <chr>            <int>
##  1 data                12
##  2 data science        12
##  3 deep                12
##  4 deep learning       12
##  5 learning            12
##  6 machine             12
##  7 machine learning    12
##  8 neural              12
##  9 python              12
## 10 pytorch             12
## # … with 120 more rows
…
