…
# pos_tags_keybert <- value(f)

pos_tags_keybert <- fst::read_fst("/home/knut/Desktop/keybert_pos_tags.fst")

keybert_counts %>% ungroup() %>% sample_n(100)

## # A tibble: 100 × 2
##    keyword                              n
##    <chr>                            <int>
##  1 power intelligent results            1
##  2 sequencing data analysis             1
##  3 combining multiple models            1
##  4 design game levels                   1
##  5 predicting poetic movements          1
##  6 know gradient boosting               2
##  7 automatic identification parquet     1
##  8 observe                              1
##  9 data scientist title                 1
## 10 amazon emr cluster                   1
## # … with 90 more rows
…
doc2vec_CSKG_embs <- paragraph2vec(d, type = "PV-DM", threads = 15, embeddings = CSKG_embs2, dim = ncol(CSKG_embs), iter = 10, window = 10L, min_count = 3)

doc2vec_CSKG_words <- as.matrix(doc2vec_CSKG_embs, which = "words")

words <- data.table(words=rownames(doc2vec_CSKG_words), id=1:length(rownames(doc2vec_CSKG_words))) %>% filter(str_detect(words, "python"))

targets <- doc2vec_CSKG_words[words$id,]

examples <- paragraph2vec_similarity(targets, doc2vec_CSKG_words, top_n = 5) %>% filter.(similarity>0.7) %>% filter.(term1!=term2)

examples

## # A tidytable: 163 × 4
##    term1                       term2                     similarity  rank
##    <chr>                       <chr>                          <dbl> <dbl>
##  1 well_python                 python_well                    0.944     2
##  2 visualizations_using_python rostami                        0.703     2
##  3 using_python_selenium       scraping_using_python          0.716     2
##  4 using_python_machine        calidad                        0.817     2
##  5 using_python_machine        dotson                         0.807     3
##  6 using_python_machine        stoeckl                        0.802     4
##  7 using_python_machine        anisdismail                    0.802     5
##  8 tips_python                 python_tips                    0.963     2
##  9 tips_python                 simple_tips                    0.780     3
## 10 tips_python                 data_science_introduction      0.724     4
## # … with 153 more rows
…
visNetwork(nodes2, edges) %>% 
   visOptions(highlightNearest = list(enabled = T, hover = F))

Now the same again for my pretrained fasttext embeddings. I felt like buying the Pastukhov databases for an affordable 500 euro and trained an ngram fasttext model on 1.3 billion English google queries. For the query data science, reasonable similar bigrams are suggested below:

library(fastTextR)
library(wordVectors)

model <- fastTextR::ft_load("/run/media/knut/HD/MLearningAlgoTests/data/Pastukhov_clean_english.bin")

ft_embs <- ft_word_vectors(model, all_replacements$from) %>% as.matrix() %>% unique() %>% as.VectorSpaceModel()

wordVectors::closest_to(matrix = ft_embs, ft_embs[["data science"]], n = 1000) %>% as.data.frame()  %>% inner_join.(bigrams %>% mutate(word=str_replace_all(ngrams, "_", " "))) %>% filter.(freq>3)%>% mutate(interest=`similarity to ft_embs[["data science"]]`*prop) %>% arrange.(desc(interest)) %>% select.(-ngrams)

## # A tidytable: 27 × 5
##    word                `similarity to ft_embs[["data sc…`  freq    prop interest
##    <chr>                                            <dbl> <int>   <dbl>    <dbl>
##  1 data science                                     1     32227 9.34e-4  9.34e-4
##  2 data scientist                                   0.801 11006 3.19e-4  2.55e-4
##  3 computer science                                 0.766  1862 5.39e-5  4.13e-5
##  4 science project                                  0.764  1081 3.13e-5  2.39e-5
##  5 in science                                       0.782   230 6.66e-6  5.21e-6
##  6 science research                                 0.746   110 3.19e-6  2.38e-6
##  7 network science                                  0.798    38 1.10e-6  8.78e-7
##  8 information science                              0.756    36 1.04e-6  7.89e-7
##  9 new science                                      0.810    28 8.11e-7  6.57e-7
## 10 applied science                                  0.757    24 6.95e-7  5.26e-7
## # … with 17 more rows
…
