…
india <- st_bbox(cities %>% filter(country.etc %in% c("India")))

tm_shape(World3, bbox = india) +
  tm_polygons(col = "Companies in Country", style = "fisher", palette = "-RdGy") +
  tm_layout(legend.show = F) + tm_shape(cities)+tm_bubbles(size = "Companies in City", col = "Companies in City", palette="Blues")  + tmap::tm_style("grey")+ tm_text("large", size = 0.8)+ tm_legend(show=FALSE)

## Note that tm_style("grey") resets all options set with tm_layout, tm_view, tm_format, or tm_legend. It is therefore recommended to place the tm_style element prior to the other tm_layout/tm_view/tm_format/tm_legend elements.

<img src="{{< blogdown/postref >}}index_files/figure-html/unnamed-chunk-19-1.png" width="672" />

And the table itself.

ai_companies_all

## # A tidytable: 7,357 × 3
##    company                 location  country  
##    <chr>                   <chr>     <chr>    
##  1 Hong Jing Drive         hangzhou  China    
##  2 Gritworld               shanghai  China    
##  3 Anruan Keji             shenzhen  China    
##  4 Jiangsu Fant Technology hong kong Hong Kong
##  5 Hebin Intelligence      hefei     China    
##  6 Lvzhou Technology       hefei     China    
##  7 Fantai AI               shanghai  China    
##  8 ccvui.com               hangzhou  China    
##  9 Intengine Technology    beijing   China    
## 10 ‌CAIWA Service           tokyo     Japan    
## # … with 7,347 more rows
…
